1 1 0/no
1 1 1/no
1 1 2/no
1 1 3/no
1 1 4/no
1 1 5/no
1 1 6/no
1 1 7/no
1 1 8/no
1 1 9/no
1 1 )/no
1 2 (/no
2 2 1/no
2 2 2/no
2 2 3/no
2 2 4/no
2 2 5/no
2 2 6/no
2 2 7/no
2 2 8/no
2 2 9/no
2 2 (/no
2 2 )/no
2 3 0/no
3 2 1/no
3 2 2/no
3 2 3/no
3 2 4/no
3 2 5/no
3 2 6/no
3 2 7/no
3 2 8/no
3 2 9/no
3 2 (/no
3 2 )/no
3 4 0/no
4 2 1/no
4 2 2/no
4 2 3/no
4 2 4/no
4 2 5/no
4 2 6/no
4 2 0/no
4 2 8/no
4 2 9/no
4 2 (/no
4 2 )/no
4 5 7/no
5 5 0/no
5 5 1/no
5 5 2/no
5 5 3/no
5 5 4/no
5 5 5/no
5 5 6/no
5 5 7/no
5 5 8/no
5 5 9/no
5 5 (/no
5 6 )/yes
6 6 0/yes
6 6 1/yes
6 6 2/yes
6 6 3/yes
6 6 4/yes
6 6 5/yes
6 6 6/yes
6 6 7/yes
6 6 8/yes
6 6 9/yes
6 6 (/yes
6 6 )/yes
